R and RStudio (L2) – BIO144 Course Book (version 2026)
…
The pipe operator |> is used to chain together multiple operations on a data frame.

Tip

Note that you will often see another pipe operator %>% used in examples. The pipe operator |> is a newer version of %>% that is more efficient and easier to use. The pipe operator |> is available in R version 4.1.0 and later.

Lets work through some examples with a sample data frame:

Here is the same dataset with 100 rows:

Select columns [#select-columns]

We can select columns by name

# A tibble: 100 × 2
   name       score
   <chr>      <dbl>
 1 Person_001  91.9
 2 Person_002  87.3
 3 Person_003  77.8
 4 Person_004  64.5
 5 Person_005  69.8
 6 Person_006  91.2
 7 Person_007  64.3
 8 Person_008  91.9
 9 Person_009  72.6
10 Person_010  70.3
# ℹ 90 more rows

We can select columns by position

# A tibble: 100 × 2
   name       score
   <chr>      <dbl>
 1 Person_001  91.9
 2 Person_002  87.3
 3 Person_003  77.8
 4 Person_004  64.5
 5 Person_005  69.8
 6 Person_006  91.2
 7 Person_007  64.3
 8 Person_008  91.9
 9 Person_009  72.6
10 Person_010  70.3
# ℹ 90 more rows

We can select columns by a condition, for example select only the numeric columns:

# A tibble: 100 × 2
     age score
   <int> <dbl>
 1    50  91.9
 2    34  87.3
 3    38  77.8
 4    33  64.5
 5    22  69.8
 6    29  91.2
 7    37  64.3
 8    41  91.9
 9    30  72.6
10    24  70.3
# ℹ 90 more rows

We can select a column by pattern matching, using helper functions, for example select columns that contain the letter “a”:

# A tibble: 100 × 2
   name         age
   <chr>      <int>
 1 Person_001    50
 2 Person_002    34
 3 Person_003    38
 4 Person_004    33
 5 Person_005    22
 6 Person_006    29
 7 Person_007    37
 8 Person_008    41
 9 Person_009    30
10 Person_010    24
# ℹ 90 more rows

Other helpers include starts_with(), ends_with(), matches(), and everything().

Filter: Getting particular rows of data [#filter-rows]

To get particular rows of data, we can use the filter() function. This function takes a logical condition as an argument and returns only the rows that meet that condition. For example, to get all rows where the Age is greater than 30:

# A tibble: 66 × 3
   name         age score
   <chr>      <int> <dbl>
 1 Person_001    50  91.9
 2 Person_002    34  87.3
 3 Person_003    38  77.8
 4 Person_004    33  64.5
 5 Person_007    37  64.3
 6 Person_008    41  91.9
 7 Person_011    39  67.3
 8 Person_012    33  96.5
 9 Person_013    41  61.7
10 Person_014    44  80.0
# ℹ 56 more rows

Here, the logical condition is age > 30.

We can combine multiple conditions using the logical operators & (and), | (or), and ! (not). For example, to get all rows where the Age is greater than 30 and the Score is less than 90:

# A tibble: 60 × 3
   name         age score
   <chr>      <int> <dbl>
 1 Person_002    34  87.3
 2 Person_003    38  77.8
 3 Person_004    33  64.5
 4 Person_007    37  64.3
 5 Person_011    39  67.3
 6 Person_013    41  61.7
 7 Person_014    44  80.0
 8 Person_015    45  87.3
 9 Person_016    46  81.3
10 Person_018    38  82.9
# ℹ 50 more rows
…
The slice() function allows us to get rows by their position in the data frame. For example, to get the first two rows:

# A tibble: 2 × 3
  name         age score
  <chr>      <int> <dbl>
1 Person_001    50  91.9
2 Person_002    34  87.3

I very rarely use this function, as I prefer to use filter() with logical conditions. I can’t think of a good use case for this function right now! Perhaps you can?

Arrange: Reordering rows [#arrange-rows]

The arrange() function allows us to reorder the rows of a data frame based on the values in one or more columns. For example, to reorder the rows by Age in ascending order:

# A tibble: 100 × 3
   name         age score
   <chr>      <int> <dbl>
 1 Person_064    20  88.8
 2 Person_056    21  79.5
 3 Person_091    21  67.4
 4 Person_005    22  69.8
 5 Person_025    22  74.9
 6 Person_033    23  67.3
 7 Person_092    23  72.4
 8 Person_010    24  70.3
 9 Person_017    24  79.1
10 Person_058    24  72.7
# ℹ 90 more rows

I f we want to reorder the rows by Age in descending order, we can use the desc() function:

# A tibble: 100 × 3
   name         age score
   <chr>      <int> <dbl>
 1 Person_001    50  91.9
 2 Person_061    50  79.9
 3 Person_075    50  67.3
 4 Person_085    50  50.1
 5 Person_096    50  86.8
 6 Person_031    49  71.8
 7 Person_078    49  72.6
 8 Person_024    48  81.2
 9 Person_057    48  80.3
10 Person_021    47  66.0
# ℹ 90 more rows

It’s unusual to need the rows of a dataset to be arranged in a specific order, but it can be useful when looking at the data directly.

Tip

Note that when you view the data in RStudio, it will always be arranged by the row number. In the viewer you can sort by clicking on the column headers.

Mutate: Adding new variables [#mutate-variables]

The mutate() function allows us to add new variables to a data frame. For example, to add a new variable called Age_in_5_years that is the Age plus 5:

# A tibble: 100 × 4
   name         age score age_in_5_years
   <chr>      <int> <dbl>          <dbl>
 1 Person_001    50  91.9             55
 2 Person_002    34  87.3             39
 3 Person_003    38  77.8             43
 4 Person_004    33  64.5             38
 5 Person_005    22  69.8             27
 6 Person_006    29  91.2             34
 7 Person_007    37  64.3             42
 8 Person_008    41  91.9             46
 9 Person_009    30  72.6             35
10 Person_010    24  70.3             29
# ℹ 90 more rows

We can add multiple new variables at once:

# A tibble: 100 × 5
   name         age score age_in_5_years percentage_score
   <chr>      <int> <dbl>          <dbl>            <dbl>
 1 Person_001    50  91.9             55            0.919
 2 Person_002    34  87.3             39            0.873
 3 Person_003    38  77.8             43            0.778
 4 Person_004    33  64.5             38            0.645
 5 Person_005    22  69.8             27            0.698
 6 Person_006    29  91.2             34            0.912
 7 Person_007    37  64.3             42            0.643
 8 Person_008    41  91.9             46            0.919
 9 Person_009    30  72.6             35            0.726
10 Person_010    24  70.3             29            0.703
# ℹ 90 more rows

Working with categorical variables [#sec-categorical-variables]

Variables in a data frame in R have a type. The most common types of variables are numeric and categorical. Numeric variables are variables that take on numerical values, such as age or score. Categorical variables are variables that take on a limited number of values, often representing categories or groups. In R, categorical variables are typically have type <chr> which is character. Or they can be of type <fct> which is factor.

When we import data categorical variable is usually imported as a character variable. For example, the variable name in our example dataset is a categorical variable of type character. Look at the first few rows of the dataset again, and see that below the variable name it says <chr> for the name variable:

# A tibble: 100 × 3
   name         age score
   <chr>      <int> <dbl>
 1 Person_001    50  91.9
 2 Person_002    34  87.3
 3 Person_003    38  77.8
 4 Person_004    33  64.5
 5 Person_005    22  69.8
 6 Person_006    29  91.2
 7 Person_007    37  64.3
 8 Person_008    41  91.9
 9 Person_009    30  72.6
10 Person_010    24  70.3
# ℹ 90 more rows
…
